text_analysis.R
…
      print(plots[[i]], vp = viewport(layout.pos.row = matchidx$row,  
                                      layout.pos.col = matchidx$col))  
    }  
  }  
} 

##################################################################

# Trumps Speach Analysis
trump <- scan("trumptalk.txt", "")
#trump
trump_df <- data_frame(line = 1:5190, text = trump)
trump_df

## # A tibble: 5,190 x 2
##     line text      
##    <int> <chr>     
##  1     1 Mr.       
##  2     2 Speaker,  
##  3     3 Mr.       
##  4     4 Vice      
##  5     5 President,
##  6     6 Members   
##  7     7 of        
##  8     8 Congress, 
##  9     9 the       
## 10    10 First     
## # ... with 5,180 more rows
…
data(stop_words)

trump_text1 <- trump_text %>%
  anti_join(stop_words)

## Joining, by = "word"

trump_text2 <- trump_text1 %>%
  count(word, sort = TRUE) 

trump_text2

## # A tibble: 1,287 x 2
##    word          n
##    <chr>     <int>
##  1 american     31
##  2 america      27
##  3 people       26
##  4 americans    24
##  5 tonight      23
##  6 country      15
##  7 tax          15
##  8 congress     13
##  9 home         12
## 10 family       10
## # ... with 1,277 more rows
…
# The following will display a cloud of words used throughout the speach with the most 
# frequently used words popping out as biggest (Notice: America, People, Tonight, Country..)

wordcloud2(trump_text3)

#########################################################

# Clintons Speach Analysis
clinton<-scan("clintontalk.txt", "")
#clinton
clinton_df <- data_frame(line = 1:6959, text = clinton)
clinton_df

## # A tibble: 6,959 x 2
##     line text      
##    <int> <chr>     
##  1     1 Mr.       
##  2     2 President,
##  3     3 Mr.       
##  4     4 Speaker,  
##  5     5 Members   
##  6     6 of        
##  7     7 the       
##  8     8 House     
##  9     9 and       
## 10    10 the       
## # ... with 6,949 more rows
…
# President Analysis Tables
president <- rep('clinton',2445)
clinton_text_s1 <- cbind(president,clinton_text1)
#clinton_text_s1

president <- rep('trump',2182)
trump_text_s1 <- cbind(president,trump_text1)
#trump_text_s1

total_text <- rbind(clinton_text_s1,trump_text_s1) %>% rename(index=line) %>% as.tibble()
total_text

## # A tibble: 4,627 x 3
##    president index word         
##    <fct>     <int> <chr>        
##  1 clinton       2 president    
##  2 clinton       4 speaker      
##  3 clinton       8 house        
##  4 clinton      11 senate       
##  5 clinton      12 distinguished
##  6 clinton      13 americans    
##  7 clinton      16 visitors     
##  8 clinton      19 chamber      
##  9 clinton      25 nice         
## 10 clinton      29 fresh        
## # ... with 4,617 more rows
…
